{
    "lyrics": "Hi",
    "events": [
        {
            "time": 0,
            "type": "setFormantShift",
            "formantShift": 1.2
        },
        {
            "time": 0,
            "type": "setPhonemeSpeed",
            "phonemeSpeed": 1.1
        },
        {
            "time": 0,
            "type": "noteOn"
        },
        {
            "time": 0,
            "type": "setFrequencyImmediate",
            "frequency": 220
        },
        {
            "time": 1,
            "type": "setTargetFrequency",
            "frequency": 440
        },
        {
            "time": 2,
            "type": "noteOff"
        },
        {
            "time": 3,
            "type": "empty"
        }
    ]
}
