0.122893	0.230425	_OI
0.230425	5.245998	OI
5.245998	5.751971	OIj
5.245998	5.868144	OI_
9.808403	10.107955	{}s
14.524425	14.862381	lt
21.874967	22.358858	@z
24.954975	25.154676	f@
29.586507	29.801570	_{}
29.863017	34.686570	{}
34.713453	35.039887	{}_
37.382537	37.486228	n{}
43.362053	43.603998	lf
45.697021	45.816074	tSaU
52.214194	52.490704	r_
56.265825	56.404080	@b
58.577751	58.777452	ri
64.818415	65.048840	@`l
69.050545	69.219523	Ts
71.231897	71.358631	sOI
75.851909	75.955600	dZOI
82.200104	82.330678	nv
88.713437	88.893936	Nz
92.477037	92.634494	dT
95.280535	95.407269	haI
99.808377	99.900547	v@`
105.987594	106.298667	@`t
108.741167	108.871741	maI
114.947267	115.204575	ut
119.056505	119.221642	@r
125.650486	125.850187	ig
130.466358	130.650698	iS
133.181527	133.292899	w@`
137.694007	137.759294	dOI
144.295669	144.372478	dE
150.232941	150.666907	oUT
154.814548	155.033452	@D
155.033452	155.156345	D@`
159.622740	159.691867	_s
166.182158	166.331934	v_
168.616977	168.755231	kI
173.025766	173.137137	l@`
179.527577	179.685034	mz
182.050726	182.150576	nU
186.386547	186.497919	m@`
192.926763	193.137985	Az
197.193456	197.373956	nf
203.875767	203.967937	wu
208.468896	208.568746	dZE
213.031301	213.154194	kl
217.217346	217.313357	l{}
221.564689	221.656859	l@
227.916725	228.270042	oUz
230.320820	230.409150	weI
237.329566	237.448619	{}m
239.948724	240.048575	gj
248.017423	248.213284	us
251.888555	252.222670	oUd
254.749659	254.876392	SU
261.101695	261.220747	p_
265.061156	265.272378	@`m
269.646604	269.888549	T_
273.955542	274.136041	Eg
276.497892	276.655349	rU
282.331473	282.838407	OIN
288.372436	288.956178	eItS
293.910305	294.194495	if
296.310560	296.437293	raI
300.892167	300.968975	gU
305.270233	305.358562	b@
309.675182	309.755830	neI
315.259136	315.332103	_u
315.351305	321.038950	u
320.836625	321.052264	uw
321.065833	321.242492	u_
325.743451	326.016120	{}v
331.077778	331.231395	mb
337.955950	338.332310	El
344.788037	344.918611	dZu
348.951040	349.123858	faI
355.160980	355.364522	@`n
359.719545	360.188075	eIn
362.534565	362.715064	Si
368.779069	369.147748	Al
371.225409	371.375185	foU
377.504477	377.961486	eIw
382.105286	382.212818	sn
387.919665	388.207695	ul
390.488898	390.646355	tSeI
392.843069	392.950600	ndZ
396.748764	396.936944	lg
405.520257	405.654671	waI
413.550551	413.700327	hi
422.402693	422.706085	iZ
427.126395	427.437469	{}dZ
429.822362	429.937574	hI
435.686666	436.201281	aUn
438.897248	439.012460	zI
445.429782	445.610282	In
450.529845	450.706504	AD
456.321181	456.505521	pT
460.875906	460.991118	keI
465.031228	465.169482	dZ{}
469.148145	469.278719	T@
475.173746	475.235193	b@`
483.303891	483.380699	ks
485.477563	485.588934	D@
490.128297	490.239669	vaU
494.314343	494.437236	SI
498.972758	499.076449	bOI
500.727825	501.361492	OIz
503.220250	503.320101	baI
507.709687	507.821059	rE
514.522572	514.779880	S_
516.790333	516.811456	_g
523.125087	523.885488	oUm
526.111960	526.161639	_dZ
532.093165	532.742304	aUt
535.041514	535.167153	fE
539.468224	539.556172	gu
546.273717	546.550124	n_
550.650172	551.320251	aIt
557.593868	558.385399	oUn
562.791170	563.088517	Ak
565.366787	565.484051	hE
570.212297	570.367253	su
576.984285	577.210437	uv
581.829796	582.064324	mp
584.049433	584.204389	woU
588.455204	588.559904	laI
592.948923	593.049435	_z
602.367724	602.962420	aIdZ
604.960093	605.110861	ti
611.681826	611.903789	AS
614.144367	614.236503	geI
615.827941	616.083408	eIb
618.085270	618.185782	v{}
622.419845	622.558049	seI
628.911238	629.003374	_aU
629.062006	633.735808	aU
633.786064	634.221616	aU_
636.906121	636.998256	m{}
640.784204	640.859588	mE
648.464987	649.030367	OIt
651.254192	651.354704	w@
659.391467	659.772574	aIf
661.841444	661.921016	bl
668.048053	668.337024	iT
672.767923	672.981511	mf
677.232326	677.357966	sm
682.333304	682.425440	_E
682.467320	687.492914	E
687.631118	688.062482	E_
690.881003	690.952198	mA
693.171836	693.397988	m_
695.349593	695.437541	vE
699.089473	699.189985	wA
705.982913	706.142057	Ad
708.621350	708.776306	faU
713.521305	713.693012	p@`
718.019211	718.153227	vOI
724.556672	724.673936	pi
728.958255	729.025263	di
735.491527	735.717679	Nd
737.916377	738.008512	sI
742.510607	742.606931	jA
748.767472	748.964308	{}g
751.062493	751.200697	st
755.820056	755.878688	lU
760.192323	760.292835	vaI
765.339369	765.406377	_tS
771.236066	771.332390	tS@
782.313314	782.648353	uD
785.219782	785.337046	leI
791.648355	791.857755	Ef
795.823786	795.987118	lb
800.430581	800.727928	b_
804.911736	805.129511	US
807.922904	808.056920	kaU
813.832165	814.418485	aIz
817.932213	818.041101	_Z
822.350548	822.392428	_j
828.125793	829.084844	aIv
831.195593	831.308669	tS{}
837.360322	838.013650	OIl
841.879169	842.427796	oUl
844.199318	844.308206	dZeI
848.274238	848.412442	sk
853.040176	853.157440	naU
857.022960	857.186292	saI
861.177451	861.277963	wU
867.166284	867.987131	aIk
873.025289	873.452465	OIb
876.928501	877.003885	_T
876.928501	877.003885	_T
877.003885	877.129525	TaI
881.191880	881.275640	dZI
887.214217	887.431993	@`d
889.747954	889.848466	_S
889.848466	890.011798	SaU
891.406400	891.892208	aUw
895.904307	896.029947	zu
900.398026	900.477598	zi
906.948050	907.207706	Iv
909.372900	909.490163	daU
915.499937	915.671644	@n
918.054614	918.209569	reI
922.326369	922.456197	sl
929.395705	929.454337	bi
933.809852	933.876859	_i
933.876859	939.890821	i
939.890821	940.137912	i_
942.273790	942.328234	_d
948.580911	948.895010	AN
952.886170	953.183517	Ap
957.438520	957.656296	ik
959.712602	959.863370	sA
965.977843	966.250062	@t
971.133265	971.317536	nt
975.388268	975.522284	taI
979.676775	979.773099	gOI
987.793110	988.036013	It
990.016935	990.171891	SE
996.759607	996.860119	jE
1000.922474	1001.039738	pA
1005.910377	1005.998325	w{}
1014.432947	1014.692603	ntS
1014.730295	1014.893626	tS
1018.600002	1019.039742	eIv
1023.215173	1023.546024	@`tS
1027.269152	1027.537184	Il
1031.591163	1032.248678	eIdZ
1036.068130	1036.256590	ls
1042.710290	1042.869434	nh
1047.199821	1047.317085	z{}
1051.618156	1051.706104	gr
1055.894099	1055.986235	rI
1060.195170	1060.287306	deI
1066.900151	1067.126302	Ig
1071.247290	1071.540449	{}t
1073.982051	1074.128630	kaI
1078.354318	1078.438077	nE
1082.797780	1082.864788	gI
1089.209601	1089.687033	aUd
1093.527424	1093.921096	OId
1096.031845	1096.165861	tSoU
1101.183079	1101.275215	_D
1101.241711	1101.346411	DE
1107.628404	1107.745668	tl
1114.421332	1114.731244	h_
1118.638643	1118.835479	ID
1123.312446	1123.433898	k@`
1128.505560	1128.576756	_A
1128.576756	1135.055584	A
1135.055584	1135.273360	A_
1137.413426	1137.509750	li
1142.945767	1143.234739	@N
1147.967174	1148.055121	Ab
1150.396211	1150.513475	tSE
1158.755449	1159.454844	eIf
1164.053263	1164.191467	{}b
1168.153310	1168.710314	eId
1171.378067	1171.503707	lOI
1175.687514	1175.775462	raU
1182.070018	1182.149590	_b
1182.149590	1182.245914	bA
1187.715436	1188.569787	eIp
1192.745218	1193.239402	oUf
1195.421347	1195.580491	Su
1202.210087	1202.360855	EZ
1202.360855	1202.549315	Z@`
1206.661926	1206.745686	ji
1211.360857	1211.478121	daI
1215.670304	1215.762440	tr
1220.913674	1221.026750	p{}
1227.459510	1227.643782	nT
1232.258953	1232.464165	ft
1234.801066	1234.901578	g@`
1241.568866	1241.715446	lv
1246.058397	1246.142157	beI
1250.958351	1251.050487	dZaI
1255.359934	1255.481386	hu
1260.184505	1260.305957	tI
1264.560960	1264.657284	vu
1272.966266	1273.083530	nm
1276.614010	1276.760590	fu
1281.392512	1281.593536	du
1285.739651	1285.823411	mI
1291.795492	1292.038396	ir
1296.289211	1296.599123	AT
1299.865759	1299.983023	k@
1306.227324	1306.407408	ts
1308.723369	1308.844821	_h
1315.227325	1315.662877	aUs
1318.259434	1318.334818	n@
1322.778281	1322.874605	waU
1329.294801	1329.830865	eIm
1334.546547	1334.768511	lz
1339.027702	1339.325050	Ud
1344.895083	1345.129611	@l
1349.091455	1349.380426	ldZ
1353.137058	1353.208254	vI
1359.042131	1359.146831	haU
1365.244552	1365.407884	zt
1370.052371	1370.144506	jeI
1377.042135	1377.879734	oUp
1380.023987	1380.099371	gaU
1381.540041	1382.298068	aUdZ
1384.722918	1384.827618	gaI
1386.209656	1387.260843	aId
1389.777828	1389.928596	TA
1397.211519	1397.349723	D_
1401.663358	1401.897886	ET
1404.888115	1404.959310	g@
1411.500959	1411.722923	up
1416.049122	1416.262709	@d
1418.633115	1418.704311	_n
1421.145912	1421.397192	n_
1425.610315	1425.911850	@`s
1430.342749	1430.581465	um
1432.960246	1433.031442	_m
1435.267832	1435.464667	m_
1437.386957	1437.433025	_k
1441.943496	1442.056572	SaI
1446.487471	1446.596359	DaU
1450.997942	1451.119393	t{}
1456.752247	1456.827631	_I
1456.827631	1462.837404	I
1462.837404	1463.021676	I_
1467.469327	1467.716418	s_
1471.385102	1471.946294	aIn
1475.686173	1475.950017	IdZ
1479.312977	1479.421865	tw
1485.519586	1486.072401	eIz
1489.774589	1490.226893	aIl
1493.824380	1493.924892	boU
1499.587062	1500.030989	oUb
1502.279943	1502.393019	tE
1508.419544	1508.557747	hOI
1514.131969	1514.261797	lp
1518.273896	1518.927224	aIg
1523.554958	1523.697350	j@`
1528.048677	1528.186881	feI
1532.400004	1532.550772	kr
1538.753193	1538.979345	Id
1541.278554	1541.353938	pr
1547.744818	1547.941654	@g
1550.123600	1550.182232	_eI
1550.215736	1555.061246	eI
1555.061092	1555.644902	eIj
1555.082186	1555.794145	eI_
1559.927696	1560.124532	{}d
1562.432118	1562.528441	DoU
1569.543333	1569.878373	AdZ
1572.022627	1572.102198	_t
1574.057992	1574.166880	t_
1578.245987	1578.472139	uT
1582.685262	1582.907226	At
1585.340451	1585.457715	S@
1591.840220	1592.028680	Af
1593.364650	1593.460974	dI
1597.787173	1597.887685	SeI
1603.499598	1603.776006	{}p
1607.126402	1607.453066	lm
1610.091273	1610.198804	heI
1613.025345	1613.098313	_dZ
1613.996968	1614.615274	aUl
1618.774437	1618.893489	dv
1624.473603	1624.995898	oUr
1627.111964	1627.307824	ru
1631.221201	1631.305690	maU
1635.341959	1635.399565	pE
1639.543366	1639.654738	zoU
1646.651962	1646.724930	nI
1650.784242	1650.872571	h@
1654.881958	1654.947245	ni
1661.068856	1661.291599	{}S
1665.147370	1665.373954	@`v
1667.374807	1667.493859	hA
1671.641500	1671.749032	ki
1678.143312	1678.412141	itS
1680.639578	1680.743269	j@
1684.983080	1685.063728	jaU
1692.195367	1692.437313	Ik
1697.111090	1697.329993	vz
1704.334898	1704.526919	Z_
1706.285826	1706.339591	bI
1710.575562	1710.694615	s{}
1714.661757	1714.738565	lI
1718.785875	1718.837721	_aI
1718.887806	1723.421728	aI
1723.421728	1724.151406	aI_
1727.308222	1727.715305	Ar
1731.463544	1731.763096	@`k
1735.787844	1735.903056	lw
1739.743465	1739.858677	fI
1745.511758	1745.749864	Et
1749.874462	1750.135610	lS
1753.791679	1754.006742	@m
1758.077575	1758.645955	oUtS
1760.489352	1760.619925	nOI
1765.080560	1765.166969	_f
1773.777165	1774.007590	dZ_
1777.556127	1777.894083	@dZ
1781.726811	1781.949554	lk
1785.781322	1785.823086	gz
1790.755611	1790.920749	np
1794.768838	1794.834125	vj
1800.437281	1800.863566	eIs
1804.607965	1804.734698	kt
1808.851616	1808.913063	D{}
1812.730429	1812.788035	lE
1817.058569	1817.181462	S@`
1822.588757	1822.815341	@v
1824.532004	1824.620333	d@`
1828.913910	1829.021442	tA
1835.085447	1835.166095	meI
1839.417427	1839.498076	mOI
1845.481433	1845.665772	im
1847.904730	1847.985379	bU
1854.744498	1854.959561	lT
1857.275327	1857.375178	j{}
1863.903872	1864.514497	aUr
1867.694355	1867.794206	teI
1871.661497	1871.769029	loU
1875.905149	1875.974276	fr
1882.049802	1882.395439	{}n
1884.403973	1884.511504	kE
1888.609220	1888.812762	s@`
1892.933520	1892.991126	dA
1897.019715	1897.088842	h{}
1902.764966	1902.976189	Is
1906.951011	1907.131511	mT
1910.699250	1910.891271	nr
1915.357666	1915.449835	mi
1921.767307	1921.920924	nz
1925.788215	1925.991757	Ev
1927.777547	1927.846674	gl
1932.435962	1932.493568	_@
1932.493568	1937.705003	@
1937.705003	1938.008395	@_
1942.075388	1942.401822	{}tS
1944.160730	1944.229857	vi
1947.928170	1947.981936	bE
1951.899153	1951.975961	lA
1955.739561	1955.801008	nA
1961.653790	1961.861172	Uk
1965.647815	1965.889761	{}k
1970.717154	1970.932217	As
1972.779454	1972.863943	peI
1976.750436	1976.854127	tSi
1980.871195	1980.951843	gi
1987.173305	1987.645675	oUk
1992.027581	1992.384739	oUg
1995.618363	1995.745097	T@`
1999.723760	1999.819770	h@`
2003.980853	2004.039419	_w
2009.597450	2009.681939	d{}
2015.703700	2016.033975	l_
2017.431884	2017.558617	s@
2023.442123	2023.814643	AtS
2027.693455	2027.935401	{}T
2029.625181	2029.759595	rOI
2037.282955	2037.578667	@k
2039.579520	2039.740817	ku
2043.834692	2043.899979	_l
2046.223426	2046.357841	g_
2049.675954	2049.894857	@`f
2054.115466	2054.249880	roU
2060.190992	2060.348449	d_
2064.592100	2064.691951	nd
2066.792654	2066.884824	jI
2071.696856	2071.773664	fj
2073.398157	2073.563295	utS
2073.563295	2073.690028	tS@`
2077.292331	2077.376820	Di
2083.275688	2083.452347	nj
2091.359748	2091.498002	ij
2096.763203	2096.889936	ml
2101.851744	2102.304912	aIw
2107.623878	2108.284428	aID
2110.258398	2110.400493	t@`
2117.674227	2117.943056	ut
2123.093043	2123.488605	eIZ
2127.209961	2127.659289	oUD
2129.779195	2129.913609	wi
2136.714972	2136.983801	iz
2139.053781	2139.161313	taU
2144.199929	2144.307460	_U
2144.307460	2149.741638	U
2149.741638	2149.937499	U_
2158.232781	2158.455525	Ek
2160.137624	2160.229794	si
2164.250702	2164.323669	b{}
2170.310866	2170.844683	oUs
2174.523794	2174.746538	Ag
2177.768940	2178.521660	OIs
2181.947304	2182.411993	eIt
2183.793580	2183.847826	_r
2191.258374	2191.456156	ub
2193.410923	2193.476210	mu
2200.225728	2200.327499	Dz
2205.085765	2205.275866	iv
2209.191162	2209.348619	ln
2213.490499	2213.665238	@s
2215.681452	2215.750580	laU
2222.719001	2222.818852	Ib
2225.933423	2226.127364	it
2228.416247	2228.519938	joU
2234.745240	2234.977585	EdZ
2240.484731	2240.592262	fs
2242.520147	2242.631519	tOI
2248.837619	2248.941310	t_
2250.713659	2250.775106	doU
2255.541053	2255.637063	koU
2261.789397	2261.916131	nw
2267.876445	2268.273927	aIb
2270.428396	2270.510965	paI
2277.241281	2277.389137	IS
2281.292912	2282.118600	aUT
2284.359478	2284.449728	ju
2290.801763	2290.926577	pd
2293.029200	2293.098328	goU
2300.700416	2300.944282	@f
2304.391049	2304.452495	dj
2308.452281	2308.521408	dZoU
2314.639179	2314.719828	ps
2318.794501	2318.959639	En
2323.070796	2323.299300	{}f
2325.219505	2325.284791	_v
2329.618693	2329.728144	Tr
2335.861277	2336.028334	ib
2343.939576	2344.066309	@`T
2347.899037	2348.064175	Ip
2352.321267	2352.490245	@`S
2354.896261	2354.978830	vA
2359.232083	2359.276247	mj
2365.897112	2366.083371	@`z
2369.666473	2369.798967	zr
2373.898603	2373.961970	baU
2378.388040	2378.526295	fA
2383.610996	2383.695485	_oU
2383.695485	2388.158040	oU
2388.204125	2388.826271	oU_
2388.208876	2388.660376	oUw
2392.935508	2393.096805	iw
2398.580908	2399.076321	oUt
2402.978176	2403.258526	@tS
2405.366910	2405.436038	lu
2407.878537	2407.986069	un
2410.006124	2410.109815	kj
2416.692275	2416.888136	If
2421.246999	2421.312286	dz
2423.923764	2424.031296	saU
2431.539294	2431.662187	k_
2434.784439	2434.987981	Er
2440.867647	2440.975178	pj
2446.908609	2446.993098	paU
2452.611616	2452.795955	Ez
2467.485518	2467.796591	@`b
2469.616945	2469.739838	t@
2475.707833	2475.811524	kw
2479.724900	2479.820910	tSu
2485.765863	2485.888756	tm
2493.177851	2493.289223	Ng
2496.906888	2497.014419	tSI
2502.725107	2502.917127	uk
2506.162272	2506.358133	@p
2512.306926	2512.422138	zm
2517.775668	2518.006092	@`p
2519.738116	2519.807244	bu
2526.954244	2527.123222	TE
2530.725525	2530.813855	zE
2536.125140	2536.186586	wE
2540.034675	2540.119164	n@`
2545.918181	2546.060276	ud
2547.857588	2547.899832	_p
2551.920740	2552.035952	k{}
2557.585342	2557.692874	bz
2561.191486	2561.306698	NI
2565.296883	2565.381372	f@`
2571.380090	2571.610514	@S
2573.503836	2573.588325	dZ@`
2578.834323	2579.260608	aIr
2584.713988	2584.932891	is
2586.772447	2586.872298	poU
2593.097600	2593.343386	Iz
2597.057061	2597.195316	id
2600.540312	2600.690088	Eb
2602.437474	2602.541165	kOI
2606.139627	2606.216436	r@
2610.709713	2610.782681	nu
2614.292815	2614.369623	fOI
2621.339964	2621.405251	mn
2627.046811	2627.100577	bj
2632.377298	2632.457947	dr
2636.056410	2636.202345	sp
2639.996669	2640.092679	sk
2642.546700	2642.777125	f_
2644.117427	2644.221118	sw
2649.551605	2649.693700	lj
2658.772426	2658.918362	uz
2662.551388	2662.777972	@`dZ
2664.437029	2664.525358	Ti
2672.348270	2672.451961	SA
2678.554370	2678.711827	Em
2683.132137	2683.304956	Av
2684.894885	2684.964012	pI
2688.631602	2688.769857	wI
2693.992813	2694.134908	@w
2699.138960	2699.638213	aIm
2702.841114	2703.509345	aIp
2706.316684	2706.796735	aIj
2709.922827	2709.999635	gA
2713.613460	2713.705630	dZ@
2717.234965	2717.342497	hoU
2722.899568	2723.122311	{}z
2724.950346	2725.023314	v@
2728.886765	2728.963573	noU
2733.130416	2733.237947	f{}
2739.148336	2739.344197	uf
2743.126999	2743.822113	aUtS
2745.630946	2745.757679	toU
2751.940737	2752.094353	in
2754.291067	2754.394758	tS@`
2760.067041	2760.873527	OIn
2762.778370	2762.866699	gE
2766.841522	2766.968255	tSOI
2770.355496	2770.451506	gw
2776.607681	2776.818903	Im
2778.888883	2778.996415	pu
2782.840664	2782.944355	sE
2788.543671	2788.781776	iD
2792.537695	2792.814205	ES
2796.888878	2797.188430	Ep
2800.644798	2800.813776	ns
2804.512089	2804.615780	tu
2808.456189	2808.605965	S{}
2812.561585	2812.642234	dw
2816.628578	2816.690025	d@
2818.406687	2818.567984	Nk
2821.751683	2822.154926	ur
2827.496934	2828.556887	aIs
2831.894202	2832.216796	An
2835.580994	2835.769174	idZ
2839.897613	2839.966741	dZA
2845.254983	2845.489248	ip
2847.632196	2847.720525	rA
2853.193108	2853.250714	_@`
2853.250714	2853.293976	@`r
2853.250714	2858.442946	@`
2858.442946	2858.730977	@`_
2862.602108	2862.955426	ltS
2866.542368	2866.807356	Es
2869.718385	2869.906565	@D
2873.716251	2873.835303	tSA
2879.499906	2879.707288	Am
2883.113730	2883.636026	eIl
2885.579273	2885.725208	soU
2891.455098	2891.604874	nl
2897.388529	2898.018356	{}l
2900.007687	2900.130581	tSaI
2906.363564	2907.435038	aUz
2909.293795	2909.393646	hj
2915.211865	2915.315556	naI
2919.862600	2919.947089	kA
2925.926605	2926.084061	IT
2934.471514	2934.586726	p@
2940.397264	2940.692975	il
2942.935774	2943.043305	DI
2948.757833	2949.011300	IN
2949.199480	2949.422224	N_
2951.058238	2951.142727	hU
2955.036901	2955.175156	TI
2962.061008	2962.226146	z_
2963.781511	2963.889043	tU
2968.666511	2968.758681	dZi
2974.930217	2975.325779	EtS
2977.534014	2977.660748	Sr
2982.084898	2982.177068	fl
2986.290146	2986.428400	SoU
2990.380181	2990.453149	r{}
2994.197547	2994.255153	br
2998.053317	2998.130125	voU
3001.621057	3001.728588	kU
3005.438423	3005.519071	pOI
3009.317235	3009.386363	g{}
3011.602278	3011.744373	{}g
3013.219090	3013.288218	m@
3017.182392	3017.247679	pl
3021.349235	3021.464447	su
3026.645158	3027.751196	eIk
3031.053947	3031.261330	@`g
3036.046479	3036.115606	maU
3042.386993	3042.621258	ld
3046.628353	3046.986323	ItS
3048.992450	3049.119231	fi
3055.890843	3056.233898	oUv
3059.768858	3060.231236	aUt
3063.758739	3064.161456	{}N
3068.315406	3068.494392	Ed
3075.385326	3075.564312	@j
